{
    "weapons": {
        "names": [
            "Large Battle Axe",
            "Battle Axe",
            "Black Staff",
            "Double Axe",
            "Executioner's Axe",
            "Gnarled Staff",
            "Heavy Crossbow",
            "Quarters Staff",
            "Short Spear",
            "Two-Handed Axe",
            "Viking Sword",
            "War Axe",
            "War Mace",
            "Axe",
            "Bardiche",
            "Bow",
            "Broadsword",
            "Club",
            "Crossbow",
            "Cutlass",
            "Halberd",
            "Hammerpick",
            "Katana",
            "Kryss",
            "Longswords",
            "Mace",
            "Maul",
            "Pitchfork",
            "Scimitar",
            "Spear",
            "Warfork",
            "Warhammer"
        ],
        "modifiers": [
            {
                "name": "Durability",
                "description": "Increased Usage",
                "steps": [
                    { "name": "Durable", "value": 20 },
                    { "name": "Substantial", "value": 40 },
                    { "name": "Massive", "value": 60 },
                    { "name": "Fortified", "value": 80 },
                    { "name": "Indestructible", "value": 100 }
                ]
            },
            {
                "name": "Accuracy PvM",
                "description": "Increased Hit Chance",
                "steps": [
                    { "name": "Exceptional", "value": 3 },
                    { "name": "Accurate", "value": 5 },
                    { "name": "Surpassingly", "value": 10 },
                    { "name": "Eminently", "value": 15 },
                    { "name": "Exceedingly", "value": 20 },
                    { "name": "Supremely", "value": 25 }
                ]
            },
            {
                "name": "Accuracy PvP",
                "description": "Increased Hit Chance",
                "steps": [
                    { "name": "Accurate", "value": 1 },
                    { "name": "Surpassingly", "value": 2 },
                    { "name": "Eminently", "value": 3 },
                    { "name": "Exceedingly", "value": 4 },
                    { "name": "Supremely", "value": 5 }
                ]
            },
            {
                "name": "Damage",
                "description": "Increased Tactics skill",
                "steps": [
                    { "name": "Ruin", "value": 5 },
                    { "name": "Exceptional", "value": 10 },
                    { "name": "Might", "value": 10 },
                    { "name": "Force", "value": 15 },
                    { "name": "Power", "value": 20 },
                    { "name": "Vanquishing", "value": 25 }
                ]
            },
            {
                "name": "Slayer",
                "description": "Increased Damage",
                "steps": [
                    { "name": "Lesser Slaying", "value": 15 },
                    { "name": "Slaying", "value": 30 },
                    { "name": "Greater Slaying", "value": 45 }
                ]
            }
        ],
        "materials": [
            {
                "name": "",
                "modifiers": [
                    { "name": "Durability", "value": 0 },
                    { "name": "Accuracy PvM", "value": 0 },
                    { "name": "Damage", "value": 0 }
                ]
            },
            {
                "name": "Iron",
                "modifiers": [
                    { "name": "Durability", "value": 0 },
                    { "name": "Accuracy PvM", "value": 0 },
                    { "name": "Damage", "value": 0 }
                ]
            },
            {
                "name": "Dull Copper",
                "modifiers": [
                    { "name": "Durability", "value": 15 },
                    { "name": "Accuracy PvM", "value": 1 },
                    { "name": "Damage", "value": 1 }
                ]
            },
            {
                "name": "Shadow",
                "modifiers": [
                    { "name": "Durability", "value": 20 },
                    { "name": "Accuracy PvM", "value": 2 },
                    { "name": "Damage", "value": 2 }
                ]
            },
            {
                "name": "Copper",
                "modifiers": [
                    { "name": "Durability", "value": 25 },
                    { "name": "Accuracy PvM", "value": 3 },
                    { "name": "Damage", "value": 3 }
                ]
            },
            {
                "name": "Bronze",
                "modifiers": [
                    { "name": "Durability", "value": 30 },
                    { "name": "Accuracy PvM", "value": 4 },
                    { "name": "Damage", "value": 4 }
                ]
            },
            {
                "name": "Gold",
                "modifiers": [
                    { "name": "Durability", "value": 35 },
                    { "name": "Accuracy PvM", "value": 5 },
                    { "name": "Damage", "value": 5 }
                ]
            },
            {
                "name": "Agapite",
                "modifiers": [
                    { "name": "Durability", "value": 40 },
                    { "name": "Accuracy PvM", "value": 6 },
                    { "name": "Damage", "value": 6 }
                ]
            },
            {
                "name": "Verite",
                "modifiers": [
                    { "name": "Durability", "value": 45 },
                    { "name": "Accuracy PvM", "value": 7 },
                    { "name": "Damage", "value": 7 }
                ]
            },
            {
                "name": "Valorite",
                "modifiers": [
                    { "name": "Durability", "value": 50 },
                    { "name": "Accuracy PvM", "value": 8 },
                    { "name": "Damage", "value": 8 }
                ]
            },
            {
                "name": "Avarite",
                "modifiers": [
                    { "name": "Durability", "value": 55 },
                    { "name": "Accuracy PvM", "value": 9 },
                    { "name": "Damage", "value": 9 }
                ]
            }
        ]
    },
    "armor": {
        "names": ["Arms", "Chest", "Gloves", "Gorget", "Helm", "Legs", "Skirt"],
        "modifiers": [
            {
                "name": "Durability",
                "description": "Increased Usage",
                "steps": [
                    { "name": "Durable", "value": 20 },
                    { "name": "Excepcional", "value": 25 },
                    { "name": "Substantial", "value": 40 },
                    { "name": "Mastercrafted", "value": 50 },
                    { "name": "Massive", "value": 60 },
                    { "name": "Fortified", "value": 80 },
                    { "name": "Indestructible", "value": 100 }
                ]
            },
            {
                "name": "Protection",
                "description": "Increased Armor Rating",
                "steps": [
                    { "name": "Defense", "value": 20 },
                    { "name": "Exceptional", "value": 40 },
                    { "name": "Guarding", "value": 40 },
                    { "name": "Hardening", "value": 60 },
                    { "name": "Fortification", "value": 80 },
                    { "name": "Invulnerability", "value": 100 }
                ]
            }
        ],
        "armorMaterials": [
            { "name": "Leather" },
            { "name": "Studded" },
            { "name": "Bone" },
            { "name": "Ringmail" },
            { "name": "Chainmail" },
            { "name": "Platemail" }
        ],
        "materials": [
            {
                "name": "Iron",
                "modifiers": [
                    { "name": "Durability", "value": 0 },
                    { "name": "Protection", "value": 0 }
                ]
            },
            {
                "name": "Leather",
                "modifiers": [
                    { "name": "Durability", "value": 0 },
                    { "name": "Protection", "value": 0 }
                ]
            },
            {
                "name": "Dull Copper",
                "modifiers": [
                    { "name": "Durability", "value": 15 },
                    { "name": "Protection", "value": 5 }
                ]
            },
            {
                "name": "Dullhide",
                "modifiers": [
                    { "name": "Durability", "value": 15 },
                    { "name": "Protection", "value": 5 }
                ]
            },
            {
                "name": "Shadow",
                "modifiers": [
                    { "name": "Durability", "value": 20 },
                    { "name": "Protection", "value": 10 }
                ]
            },
            {
                "name": "Shadowhide",
                "modifiers": [
                    { "name": "Durability", "value": 20 },
                    { "name": "Protection", "value": 10 }
                ]
            },
            {
                "name": "Copper",
                "modifiers": [
                    { "name": "Durability", "value": 25 },
                    { "name": "Protection", "value": 15 }
                ]
            },
            {
                "name": "Copperhide",
                "modifiers": [
                    { "name": "Durability", "value": 25 },
                    { "name": "Protection", "value": 15 }
                ]
            },
            {
                "name": "Bronze",
                "modifiers": [
                    { "name": "Durability", "value": 30 },
                    { "name": "Protection", "value": 20 }
                ]
            },
            {
                "name": "Bronzehide",
                "modifiers": [
                    { "name": "Durability", "value": 30 },
                    { "name": "Protection", "value": 20 }
                ]
            },
            {
                "name": "Gold",
                "modifiers": [
                    { "name": "Durability", "value": 35 },
                    { "name": "Protection", "value": 25 }
                ]
            },
            {
                "name": "Goldenhide",
                "modifiers": [
                    { "name": "Durability", "value": 35 },
                    { "name": "Protection", "value": 25 }
                ]
            },
            {
                "name": "Agapite",
                "modifiers": [
                    { "name": "Durability", "value": 40 },
                    { "name": "Protection", "value": 30 }
                ]
            },
            {
                "name": "Rosehide",
                "modifiers": [
                    { "name": "Durability", "value": 40 },
                    { "name": "Protection", "value": 30 }
                ]
            },
            {
                "name": "Verite",
                "modifiers": [
                    { "name": "Durability", "value": 45 },
                    { "name": "Protection", "value": 35 }
                ]
            },
            {
                "name": "Verihide",
                "modifiers": [
                    { "name": "Durability", "value": 45 },
                    { "name": "Protection", "value": 35 }
                ]
            },
            {
                "name": "Valorite",
                "modifiers": [
                    { "name": "Durability", "value": 50 },
                    { "name": "Protection", "value": 40 }
                ]
            },
            {
                "name": "Valehide",
                "modifiers": [
                    { "name": "Durability", "value": 50 },
                    { "name": "Protection", "value": 40 }
                ]
            },
            {
                "name": "Avarite",
                "modifiers": [
                    { "name": "Durability", "value": 55 },
                    { "name": "Protection", "value": 45 }
                ]
            },
            {
                "name": "Avarhide",
                "modifiers": [
                    { "name": "Durability", "value": 55 },
                    { "name": "Protection", "value": 45 }
                ]
            }
        ]
    },
    "instruments": {
        "names": ["Bamboo Flute", "Drums", "Harp", "Lute", "Standing Harp", "Tambourine"],
        "modifiers": [
            {
                "name": "Durability",
                "description": "Increased Uses",
                "steps": [
                    { "name": "Durable", "value": 100 },
                    { "name": "Substantial", "value": 200 },
                    { "name": "Massive", "value": 300 },
                    { "name": "Fortified", "value": 400 },
                    { "name": "Indestructible", "value": 500 }
                ]
            },
            {
                "name": "Artistry",
                "description": "Increased Barding skills",
                "steps": [
                    { "name": "Exceptional", "value": 5 },
                    { "name": "Melodious", "value": 5 },
                    { "name": "Surpassingly", "value": 10 },
                    { "name": "Eminently", "value": 15 },
                    { "name": "Exceedingly", "value": 20 },
                    { "name": "Supremely", "value": 25 }
                ]
            },
            {
                "name": "Slayer",
                "description": "Increased Barding skills",
                "steps": [
                    { "name": "Lesser Slaying", "value": 10 },
                    { "name": "Slaying", "value": 20 },
                    { "name": "Greater Slaying", "value": 30 }
                ]
            }
        ],
        "materials": [
            {
                "name": "",
                "modifiers": [
                    { "name": "Durability", "value": 0 },
                    { "name": "Artistry", "value": 0 }
                ]
            },
            {
                "name": "Dullwood",
                "modifiers": [
                    { "name": "Durability", "value": 15 },
                    { "name": "Artistry", "value": 4 }
                ]
            },
            {
                "name": "Shadowwood",
                "modifiers": [
                    { "name": "Durability", "value": 20 },
                    { "name": "Artistry", "value": 3 }
                ]
            },
            {
                "name": "Copperwood",
                "modifiers": [
                    { "name": "Durability", "value": 25 },
                    { "name": "Artistry", "value": 5 }
                ]
            },
            {
                "name": "Bronzewood",
                "modifiers": [
                    { "name": "Durability", "value": 30 },
                    { "name": "Artistry", "value": 6 }
                ]
            },
            {
                "name": "Goldenwood",
                "modifiers": [
                    { "name": "Durability", "value": 35 },
                    { "name": "Artistry", "value": 7 }
                ]
            },
            {
                "name": "Rosewood",
                "modifiers": [
                    { "name": "Durability", "value": 40 },
                    { "name": "Artistry", "value": 8 }
                ]
            },
            {
                "name": "Veriwood",
                "modifiers": [
                    { "name": "Durability", "value": 45 },
                    { "name": "Artistry", "value": 9 }
                ]
            },
            {
                "name": "Valewood",
                "modifiers": [
                    { "name": "Durability", "value": 50 },
                    { "name": "Artistry", "value": 10 }
                ]
            },
            {
                "name": "Avarwood",
                "modifiers": [
                    { "name": "Durability", "value": 55 },
                    { "name": "Artistry", "value": 11 }
                ]
            }
        ]
    },
    "spellbooks": {
        "names": ["Spellbook"],
        "modifiers": [
            {
                "name": "Durability",
                "description": "Increased Uses",
                "steps": [
                    { "name": "Durable", "value": 100 },
                    { "name": "Substantial", "value": 150 },
                    { "name": "Massive", "value": 200 },
                    { "name": "Fortified", "value": 250 },
                    { "name": "Indestructible", "value": 300 }
                ]
            },
            {
                "name": "Potency",
                "description": "Mana Refund on Cast",
                "steps": [
                    { "name": "Potent", "value": 5 },
                    { "name": "Surpassingly", "value": 10 },
                    { "name": "Eminently", "value": 15 },
                    { "name": "Exceedingly", "value": 20 },
                    { "name": "Supremely", "value": 25 }
                ]
            },
            {
                "name": "Damage",
                "description": "Increased Tactics skill",
                "steps": [
                    { "name": "Ruin", "value": 5 },
                    { "name": "Might", "value": 10 },
                    { "name": "Force", "value": 15 },
                    { "name": "Power", "value": 20 },
                    { "name": "Vanquishing", "value": 25 }
                ]
            },
            {
                "name": "Slayer",
                "description": "Increased Damage",
                "steps": [
                    { "name": "Lesser Slaying", "value": 15 },
                    { "name": "Slaying", "value": 30 },
                    { "name": "Greater Slaying", "value": 45 }
                ]
            }
        ],
        "materials": [
            {
                "name": "Leather",
                "modifiers": [{ "name": "Durability", "value": 0 }]
            },
            {
                "name": "Dullhide",
                "modifiers": [{ "name": "Durability", "value": 15 }]
            },
            {
                "name": "Shadowhide",
                "modifiers": [{ "name": "Durability", "value": 20 }]
            },
            {
                "name": "Copperhide",
                "modifiers": [{ "name": "Durability", "value": 25 }]
            },
            {
                "name": "Bronzehide",
                "modifiers": [{ "name": "Durability", "value": 30 }]
            },
            {
                "name": "Goldenhide",
                "modifiers": [{ "name": "Durability", "value": 35 }]
            },
            {
                "name": "Rosehide",
                "modifiers": [{ "name": "Durability", "value": 40 }]
            },
            {
                "name": "Verihide",
                "modifiers": [{ "name": "Durability", "value": 45 }]
            },
            {
                "name": "Valehide",
                "modifiers": [{ "name": "Durability", "value": 50 }]
            },
            {
                "name": "Avarhide",
                "modifiers": [{ "name": "Durability", "value": 55 }]
            }
        ]
    }
}
